analysisscript
…
processed_cat_fit <-
  processed_cat_workflow %>%
  fit(data = train_data)

#Extract the fitted model object and use tidy() to get a tidy tibble 
#of model coefficients
processed_cat_fit %>%
  extract_fit_parsnip() %>%
  tidy()

## # A tibble: 32 x 5
##    term                 estimate std.error statistic p.value
##    <chr>                   <dbl>     <dbl>     <dbl>   <dbl>
##  1 (Intercept)            2.56       9.39      0.273  0.785 
##  2 SwollenLymphNodesYes  -0.240      0.231    -1.04   0.300 
##  3 ChestCongestionYes     0.168      0.252     0.668  0.504 
##  4 ChillsSweatsYes        0.148      0.331     0.448  0.654 
##  5 NasalCongestionYes     0.600      0.309     1.94   0.0521
##  6 SneezeYes              0.0974     0.247     0.395  0.693 
##  7 FatigueYes             0.180      0.438     0.411  0.681 
##  8 SubjectiveFeverYes     0.191      0.261     0.733  0.463 
##  9 HeadacheYes            0.482      0.351     1.37   0.169 
## 10 Weakness.L             0.668      0.406     1.65   0.0999
## # ... with 22 more rows

Model Evaluaton: * Look at predictions, ROC and ROC-AUC for my data * ROC-AUC is how good the model is at distinguishing between patients with nausea and patients without nausea

#Use the trained workflow to predict with the test data
#Returns predicted class
predict(processed_cat_fit, test_data)

## # A tibble: 183 x 1
##    .pred_class
##    <fct>      
##  1 No         
##  2 No         
##  3 No         
##  4 No         
##  5 No         
##  6 Yes        
##  7 Yes        
##  8 No         
##  9 No         
## 10 Yes        
## # ... with 173 more rows

#Can these warnings be ignored?

#Returns predicted class probabiliies
processed_cat_aug <- augment(processed_cat_fit, test_data)
processed_cat_aug

## # A tibble: 183 x 29
##    SwollenLymphNodes ChestCongestion ChillsSweats NasalCongestion Sneeze Fatigue
##    <fct>             <fct>           <fct>        <fct>           <fct>  <fct>  
##  1 Yes               No              No           No              No     Yes    
##  2 Yes               Yes             Yes          Yes             Yes    Yes    
##  3 No                No              Yes          No              No     Yes    
##  4 Yes               Yes             Yes          Yes             Yes    Yes    
##  5 No                Yes             No           No              Yes    Yes    
##  6 No                No              Yes          Yes             No     Yes    
##  7 No                No              Yes          Yes             Yes    Yes    
##  8 Yes               Yes             Yes          Yes             Yes    Yes    
##  9 No                No              Yes          Yes             No     Yes    
## 10 No                No              Yes          Yes             Yes    Yes    
## # ... with 173 more rows, and 23 more variables: SubjectiveFever <fct>,
## #   Headache <fct>, Weakness <ord>, CoughIntensity <ord>, Myalgia <ord>,
## #   RunnyNose <fct>, AbPain <fct>, ChestPain <fct>, Diarrhea <fct>,
## #   EyePn <fct>, Insomnia <fct>, ItchyEye <fct>, Nausea <fct>, EarPn <fct>,
## #   Pharyngitis <fct>, Breathless <fct>, ToothPn <fct>, Vomit <fct>,
## #   Wheeze <fct>, BodyTemp <dbl>, .pred_class <fct>, .pred_No <dbl>,
## #   .pred_Yes <dbl>
…
## # A tibble: 1 x 3
##   .metric .estimator .estimate
##   <chr>   <chr>          <dbl>
## 1 roc_auc binary         0.731

#Was it correct to use .pred_No instead of .pred_Yes

#Out of curiousity, apply training data instead
#Use the trained workflow to predict with the training data
#Returns predicted class
predict(processed_cat_fit, train_data)

## # A tibble: 547 x 1
##    .pred_class
##    <fct>      
##  1 No         
##  2 Yes        
##  3 No         
##  4 No         
##  5 Yes        
##  6 No         
##  7 No         
##  8 No         
##  9 No         
## 10 No         
## # ... with 537 more rows

#Returns predicted class probabiliies
processed_cat_aug_train <- augment(processed_cat_fit, train_data)
processed_cat_aug_train

## # A tibble: 547 x 29
##    SwollenLymphNodes ChestCongestion ChillsSweats NasalCongestion Sneeze Fatigue
##    <fct>             <fct>           <fct>        <fct>           <fct>  <fct>  
##  1 No                No              Yes          Yes             No     Yes    
##  2 No                Yes             Yes          Yes             Yes    Yes    
##  3 Yes               Yes             Yes          Yes             Yes    Yes    
##  4 No                Yes             No           Yes             No     Yes    
##  5 Yes               Yes             Yes          Yes             Yes    Yes    
##  6 Yes               No              Yes          Yes             Yes    Yes    
##  7 No                Yes             Yes          Yes             Yes    No     
##  8 No                Yes             Yes          Yes             No     Yes    
##  9 Yes               No              Yes          Yes             No     Yes    
## 10 No                No              No           Yes             Yes    Yes    
## # ... with 537 more rows, and 23 more variables: SubjectiveFever <fct>,
## #   Headache <fct>, Weakness <ord>, CoughIntensity <ord>, Myalgia <ord>,
## #   RunnyNose <fct>, AbPain <fct>, ChestPain <fct>, Diarrhea <fct>,
## #   EyePn <fct>, Insomnia <fct>, ItchyEye <fct>, Nausea <fct>, EarPn <fct>,
## #   Pharyngitis <fct>, Breathless <fct>, ToothPn <fct>, Vomit <fct>,
## #   Wheeze <fct>, BodyTemp <dbl>, .pred_class <fct>, .pred_No <dbl>,
## #   .pred_Yes <dbl>
…
processed_cat_main_fit <-
  processed_cat_main_workflow %>%
  fit(data = train_data)

#Evaluate performace
#Use the trained workflow to predict with the test data
#Returns predicted class
predict(processed_cat_main_fit, test_data)

## # A tibble: 183 x 1
##    .pred_class
##    <fct>      
##  1 No         
##  2 No         
##  3 No         
##  4 No         
##  5 No         
##  6 No         
##  7 No         
##  8 No         
##  9 No         
## 10 No         
## # ... with 173 more rows

#No warnings this time

#Returns predicted class probabiliies
processed_cat_main_aug <- augment(processed_cat_main_fit, test_data)
processed_cat_main_aug

## # A tibble: 183 x 29
##    SwollenLymphNodes ChestCongestion ChillsSweats NasalCongestion Sneeze Fatigue
##    <fct>             <fct>           <fct>        <fct>           <fct>  <fct>  
##  1 Yes               No              No           No              No     Yes    
##  2 Yes               Yes             Yes          Yes             Yes    Yes    
##  3 No                No              Yes          No              No     Yes    
##  4 Yes               Yes             Yes          Yes             Yes    Yes    
##  5 No                Yes             No           No              Yes    Yes    
##  6 No                No              Yes          Yes             No     Yes    
##  7 No                No              Yes          Yes             Yes    Yes    
##  8 Yes               Yes             Yes          Yes             Yes    Yes    
##  9 No                No              Yes          Yes             No     Yes    
## 10 No                No              Yes          Yes             Yes    Yes    
## # ... with 173 more rows, and 23 more variables: SubjectiveFever <fct>,
## #   Headache <fct>, Weakness <ord>, CoughIntensity <ord>, Myalgia <ord>,
## #   RunnyNose <fct>, AbPain <fct>, ChestPain <fct>, Diarrhea <fct>,
## #   EyePn <fct>, Insomnia <fct>, ItchyEye <fct>, Nausea <fct>, EarPn <fct>,
## #   Pharyngitis <fct>, Breathless <fct>, ToothPn <fct>, Vomit <fct>,
## #   Wheeze <fct>, BodyTemp <dbl>, .pred_class <fct>, .pred_No <dbl>,
## #   .pred_Yes <dbl>
…
## # A tibble: 1 x 3
##   .metric .estimator .estimate
##   <chr>   <chr>          <dbl>
## 1 roc_auc binary         0.466

#Was it correct to use .pred_No instead of .pred_Yes

Out of curiousity, apply training data instead

#Use the trained workflow to predict with the training data
#Returns predicted class
predict(processed_cat_main_fit, train_data)

## # A tibble: 547 x 1
##    .pred_class
##    <fct>      
##  1 No         
##  2 No         
##  3 No         
##  4 No         
##  5 No         
##  6 No         
##  7 No         
##  8 No         
##  9 No         
## 10 No         
## # ... with 537 more rows

#Returns predicted class probabiliies
processed_cat_main_aug_train <- augment(processed_cat_main_fit, train_data)
processed_cat_main_aug_train

## # A tibble: 547 x 29
##    SwollenLymphNodes ChestCongestion ChillsSweats NasalCongestion Sneeze Fatigue
##    <fct>             <fct>           <fct>        <fct>           <fct>  <fct>  
##  1 No                No              Yes          Yes             No     Yes    
##  2 No                Yes             Yes          Yes             Yes    Yes    
##  3 Yes               Yes             Yes          Yes             Yes    Yes    
##  4 No                Yes             No           Yes             No     Yes    
##  5 Yes               Yes             Yes          Yes             Yes    Yes    
##  6 Yes               No              Yes          Yes             Yes    Yes    
##  7 No                Yes             Yes          Yes             Yes    No     
##  8 No                Yes             Yes          Yes             No     Yes    
##  9 Yes               No              Yes          Yes             No     Yes    
## 10 No                No              No           Yes             Yes    Yes    
## # ... with 537 more rows, and 23 more variables: SubjectiveFever <fct>,
## #   Headache <fct>, Weakness <ord>, CoughIntensity <ord>, Myalgia <ord>,
## #   RunnyNose <fct>, AbPain <fct>, ChestPain <fct>, Diarrhea <fct>,
## #   EyePn <fct>, Insomnia <fct>, ItchyEye <fct>, Nausea <fct>, EarPn <fct>,
## #   Pharyngitis <fct>, Breathless <fct>, ToothPn <fct>, Vomit <fct>,
## #   Wheeze <fct>, BodyTemp <dbl>, .pred_class <fct>, .pred_No <dbl>,
## #   .pred_Yes <dbl>
…
cont_fit <-
  cont_workflow %>%
  fit(data = train_data)

#Extract the fitted model object and use tidy() to get a tidy tibble 
#of model coefficients
cont_fit %>%
  extract_fit_parsnip() %>%
  tidy()

## # A tibble: 32 x 5
##    term                 estimate std.error statistic    p.value
##    <chr>                   <dbl>     <dbl>     <dbl>      <dbl>
##  1 (Intercept)           98.0        0.280   350.    0         
##  2 SwollenLymphNodesYes  -0.190      0.108    -1.76  0.0789    
##  3 ChestCongestionYes     0.146      0.115     1.27  0.203     
##  4 ChillsSweatsYes        0.184      0.148     1.24  0.214     
##  5 NasalCongestionYes    -0.182      0.136    -1.34  0.180     
##  6 SneezeYes             -0.474      0.113    -4.18  0.0000338 
##  7 FatigueYes             0.362      0.187     1.94  0.0529    
##  8 SubjectiveFeverYes     0.564      0.118     4.79  0.00000223
##  9 HeadacheYes            0.0675     0.150     0.448 0.654     
## 10 Weakness.L             0.224      0.182     1.23  0.218     
## # ... with 22 more rows

#We'll now start to evaluate the model using RMSE.

#We use RMSE on BodyTemp against all predictors and use the train data.
#Make predictions.

predict(cont_fit, train_data)

## # A tibble: 547 x 1
##    .pred
##    <dbl>
##  1  99.2
##  2  98.9
##  3  98.7
##  4  98.7
##  5  98.9
##  6  98.4
##  7  98.7
##  8  99.6
##  9  99.3
## 10  98.7
## # ... with 537 more rows

#Returns predicted class probabiliies
cont_aug_train <- augment(cont_fit, train_data)
cont_aug_train

## # A tibble: 547 x 27
##    SwollenLymphNodes ChestCongestion ChillsSweats NasalCongestion Sneeze Fatigue
##    <fct>             <fct>           <fct>        <fct>           <fct>  <fct>  
##  1 No                No              Yes          Yes             No     Yes    
##  2 No                Yes             Yes          Yes             Yes    Yes    
##  3 Yes               Yes             Yes          Yes             Yes    Yes    
##  4 No                Yes             No           Yes             No     Yes    
##  5 Yes               Yes             Yes          Yes             Yes    Yes    
##  6 Yes               No              Yes          Yes             Yes    Yes    
##  7 No                Yes             Yes          Yes             Yes    No     
##  8 No                Yes             Yes          Yes             No     Yes    
##  9 Yes               No              Yes          Yes             No     Yes    
## 10 No                No              No           Yes             Yes    Yes    
## # ... with 537 more rows, and 21 more variables: SubjectiveFever <fct>,
## #   Headache <fct>, Weakness <ord>, CoughIntensity <ord>, Myalgia <ord>,
## #   RunnyNose <fct>, AbPain <fct>, ChestPain <fct>, Diarrhea <fct>,
## #   EyePn <fct>, Insomnia <fct>, ItchyEye <fct>, Nausea <fct>, EarPn <fct>,
## #   Pharyngitis <fct>, Breathless <fct>, ToothPn <fct>, Vomit <fct>,
## #   Wheeze <fct>, BodyTemp <dbl>, .pred <dbl>
…
train_rmse #The value is 1.11.

## # A tibble: 1 x 3
##   .metric .estimator .estimate
##   <chr>   <chr>          <dbl>
## 1 rmse    standard        1.12

Now we repeat this on the test data

#We use RMSE on BodyTemp against all predictors and use the test data.
#Make predictions.
predict(cont_fit, test_data)

## # A tibble: 183 x 1
##    .pred
##    <dbl>
##  1  99.4
##  2  99.0
##  3  99.8
##  4  98.7
##  5  99.0
##  6  99.6
##  7  99.2
##  8  98.8
##  9  99.5
## 10  98.8
## # ... with 173 more rows

#Returns predicted class probabiliies
cont_aug_test <- augment(cont_fit, test_data)
cont_aug_test

## # A tibble: 183 x 27
##    SwollenLymphNodes ChestCongestion ChillsSweats NasalCongestion Sneeze Fatigue
##    <fct>             <fct>           <fct>        <fct>           <fct>  <fct>  
##  1 Yes               No              No           No              No     Yes    
##  2 Yes               Yes             Yes          Yes             Yes    Yes    
##  3 No                No              Yes          No              No     Yes    
##  4 Yes               Yes             Yes          Yes             Yes    Yes    
##  5 No                Yes             No           No              Yes    Yes    
##  6 No                No              Yes          Yes             No     Yes    
##  7 No                No              Yes          Yes             Yes    Yes    
##  8 Yes               Yes             Yes          Yes             Yes    Yes    
##  9 No                No              Yes          Yes             No     Yes    
## 10 No                No              Yes          Yes             Yes    Yes    
## # ... with 173 more rows, and 21 more variables: SubjectiveFever <fct>,
## #   Headache <fct>, Weakness <ord>, CoughIntensity <ord>, Myalgia <ord>,
## #   RunnyNose <fct>, AbPain <fct>, ChestPain <fct>, Diarrhea <fct>,
## #   EyePn <fct>, Insomnia <fct>, ItchyEye <fct>, Nausea <fct>, EarPn <fct>,
## #   Pharyngitis <fct>, Breathless <fct>, ToothPn <fct>, Vomit <fct>,
## #   Wheeze <fct>, BodyTemp <dbl>, .pred <dbl>
…
## # A tibble: 2 x 5
##   term         estimate std.error statistic p.value
##   <chr>           <dbl>     <dbl>     <dbl>   <dbl>
## 1 (Intercept)    99.1      0.0964   1028.    0     
## 2 RunnyNoseYes   -0.261    0.114      -2.29  0.0225

#make predictions
predict(cont_fit2, train_data)

## # A tibble: 547 x 1
##    .pred
##    <dbl>
##  1  98.9
##  2  98.9
##  3  98.9
##  4  98.9
##  5  98.9
##  6  98.9
##  7  98.9
##  8  98.9
##  9  99.1
## 10  98.9
## # ... with 537 more rows

#Returns predicted class probabiliies
cont_aug_train2 <- augment(cont_fit2, train_data)
cont_aug_train2

## # A tibble: 547 x 27
##    SwollenLymphNodes ChestCongestion ChillsSweats NasalCongestion Sneeze Fatigue
##    <fct>             <fct>           <fct>        <fct>           <fct>  <fct>  
##  1 No                No              Yes          Yes             No     Yes    
##  2 No                Yes             Yes          Yes             Yes    Yes    
##  3 Yes               Yes             Yes          Yes             Yes    Yes    
##  4 No                Yes             No           Yes             No     Yes    
##  5 Yes               Yes             Yes          Yes             Yes    Yes    
##  6 Yes               No              Yes          Yes             Yes    Yes    
##  7 No                Yes             Yes          Yes             Yes    No     
##  8 No                Yes             Yes          Yes             No     Yes    
##  9 Yes               No              Yes          Yes             No     Yes    
## 10 No                No              No           Yes             Yes    Yes    
## # ... with 537 more rows, and 21 more variables: SubjectiveFever <fct>,
## #   Headache <fct>, Weakness <ord>, CoughIntensity <ord>, Myalgia <ord>,
## #   RunnyNose <fct>, AbPain <fct>, ChestPain <fct>, Diarrhea <fct>,
## #   EyePn <fct>, Insomnia <fct>, ItchyEye <fct>, Nausea <fct>, EarPn <fct>,
## #   Pharyngitis <fct>, Breathless <fct>, ToothPn <fct>, Vomit <fct>,
## #   Wheeze <fct>, BodyTemp <dbl>, .pred <dbl>
…
train_rmse2 #The value is 1.21.

## # A tibble: 1 x 3
##   .metric .estimator .estimate
##   <chr>   <chr>          <dbl>
## 1 rmse    standard        1.21

#Now we repeat this on the test data.
#We use RMSE on BodyTemp against Runnt nose and use the test data.
#Make predictions.
predict(cont_fit2, test_data)

## # A tibble: 183 x 1
##    .pred
##    <dbl>
##  1  99.1
##  2  98.9
##  3  98.9
##  4  98.9
##  5  99.1
##  6  99.1
##  7  98.9
##  8  99.1
##  9  99.1
## 10  99.1
## # ... with 173 more rows

#Returns predicted class probabiliies
cont_aug_test2 <- augment(cont_fit2, test_data)
cont_aug_test2

## # A tibble: 183 x 27
##    SwollenLymphNodes ChestCongestion ChillsSweats NasalCongestion Sneeze Fatigue
##    <fct>             <fct>           <fct>        <fct>           <fct>  <fct>  
##  1 Yes               No              No           No              No     Yes    
##  2 Yes               Yes             Yes          Yes             Yes    Yes    
##  3 No                No              Yes          No              No     Yes    
##  4 Yes               Yes             Yes          Yes             Yes    Yes    
##  5 No                Yes             No           No              Yes    Yes    
##  6 No                No              Yes          Yes             No     Yes    
##  7 No                No              Yes          Yes             Yes    Yes    
##  8 Yes               Yes             Yes          Yes             Yes    Yes    
##  9 No                No              Yes          Yes             No     Yes    
## 10 No                No              Yes          Yes             Yes    Yes    
## # ... with 173 more rows, and 21 more variables: SubjectiveFever <fct>,
## #   Headache <fct>, Weakness <ord>, CoughIntensity <ord>, Myalgia <ord>,
## #   RunnyNose <fct>, AbPain <fct>, ChestPain <fct>, Diarrhea <fct>,
## #   EyePn <fct>, Insomnia <fct>, ItchyEye <fct>, Nausea <fct>, EarPn <fct>,
## #   Pharyngitis <fct>, Breathless <fct>, ToothPn <fct>, Vomit <fct>,
## #   Wheeze <fct>, BodyTemp <dbl>, .pred <dbl>
…
null_fit <- null_workflow %>% 
  fit(data = train_data)

#On Test data
predict(null_fit, test_data) 

## # A tibble: 222 x 1
##    .pred
##    <dbl>
##  1  98.9
##  2  98.9
##  3  98.9
##  4  98.9
##  5  98.9
##  6  98.9
##  7  98.9
##  8  98.9
##  9  98.9
## 10  98.9
## # ... with 212 more rows
…
