Tidy Tuesday
…
#Tune grid specification:
#grid_regular() from the dials package chooses sensible values to try for each hyperparameter
#grid filled with 25 candidate decision tree models 
tree_grid <-
  grid_regular(cost_complexity(),
               tree_depth(),
               levels = 5)

tree_grid

## # A tibble: 25 x 2
##    cost_complexity tree_depth
##              <dbl>      <int>
##  1    0.0000000001          1
##  2    0.0000000178          1
##  3    0.00000316            1
##  4    0.000562              1
##  5    0.1                   1
##  6    0.0000000001          4
##  7    0.0000000178          4
##  8    0.00000316            4
##  9    0.000562              4
## 10    0.1                   4
## # ... with 15 more rows
…
