Tidy Tuesday
…
Who has the most working papers total? Jonathan Gruber

cleaned_data %>%
  group_by(name) %>%
  summarise(NumberofPapers = n()) %>%
  arrange(desc(NumberofPapers)) 

## # A tibble: 15,398 x 2
##    name               NumberofPapers
##    <chr>                       <int>
##  1 Jonathan Gruber               359
##  2 James J Heckman               331
##  3 Daron Acemoglu                308
##  4 Janet M Currie                306
##  5 Michael D Bordo               297
##  6 Edward L Glaeser              291
##  7 Joshua Aizenman               284
##  8 Martin S Feldstein            272
##  9 Andrei Shleifer               242
## 10 Alan M Taylor                 239
## # ... with 15,388 more rows

Who has the most working papers published in one month? Janet M Currie

cleaned_data %>%
  group_by(year, month, name) %>%
  summarise(NumberofPapers = n()) %>%
  arrange(desc(NumberofPapers)) 

## # A tibble: 62,049 x 4
## # Groups:   year, month [576]
##     year month name                    NumberofPapers
##    <dbl> <dbl> <chr>                            <int>
##  1  2020     1 Janet M Currie                      20
##  2  2018    10 Solomon M Hsiang                    19
##  3  2020     5 Kosali Ilayperuma Simon             17
##  4  2017     4 Fatih Guvenen                       16
##  5  2019     5 Xavier D'Haultfoeuille              16
##  6  2019     6 David Card                          16
##  7  2020     3 Wei Xiong                           16
##  8  2020     4 Johannes C Stroebel                 16
##  9  2020     4 Theresa Kuchler                     16
## 10  2020     5 Constantine Yannelis                16
## # ... with 62,039 more rows
…
